<?xml version="1.0" standalone="no"?>
<!DOCTYPE svg PUBLIC "-//W3C//DTD SVG 1.1//EN" "http://www.w3.org/Graphics/SVG/1.1/DTD/svg11.dtd" >
<svg xmlns="http://www.w3.org/2000/svg">
<metadata>Generated by IcoMoon</metadata>
<defs>
<font id="icomoon" horiz-adv-x="1024">
<font-face units-per-em="1024" ascent="960" descent="-64" />
<missing-glyph horiz-adv-x="1024" />
<glyph unicode="&#x20;" horiz-adv-x="512" d="" />
<glyph unicode="&#xe900;" glyph-name="cheveron-outline-left" d="M512-51.2c-282.77 0-512 229.23-512 512s229.23 512 512 512v0c282.77 0 512-229.23 512-512s-229.23-512-512-512v0zM921.6 460.8c0 226.216-183.384 409.6-409.6 409.6s-409.6-183.384-409.6-409.6v0c0-226.216 183.384-409.6 409.6-409.6s409.6 183.384 409.6 409.6v0zM381.952 496.64l181.248 181.76 72.192-72.192-143.872-145.408 144.384-144.896-72.704-72.192-217.088 217.088 35.84 35.84z" />
<glyph unicode="&#xe901;" glyph-name="cheveron-outline-right" d="M512 972.8c282.77 0 512-229.23 512-512s-229.23-512-512-512v0c-282.77 0-512 229.23-512 512s229.23 512 512 512v0zM102.4 460.8c0-226.216 183.384-409.6 409.6-409.6s409.6 183.384 409.6 409.6v0c0 226.216-183.384 409.6-409.6 409.6s-409.6-183.384-409.6-409.6v0zM642.048 424.96l-181.248-181.76-72.192 72.192 143.872 145.408-143.36 144.896 71.68 72.192 217.088-217.088-35.84-35.84z" />
</font></defs></svg>